스터디 발표자료
…
## Warning: Predictions from 791 candidates were identical to those from existing
## * candidates and were removed from the data stack.

stacking_pred_lunch <-
  test_lunch %>%
  bind_cols(predict(stacking_model_lunch, .))

stacking_pred_dinner <-
  test_dinner %>%
  bind_cols(predict(stacking_model_dinner, .))

stacking_pred_dinner

## # A tibble: 50 x 28
##    month  wday   day Topic1 Topic2 Topic3 Topic4 체감온도  폭염 미세먼지
##    <dbl> <dbl> <dbl>  <dbl>  <dbl>  <dbl>  <dbl>    <dbl> <dbl>    <dbl>
##  1     1     5    27  0.656 0.146  0.0565 0.142    10.9       0     32.1
##  2     1     3    28  0.234 0.528  0.151  0.0872    3.08      0     45.9
##  3     1     4    29  0.252 0.141  0.269  0.338    -1.76      0     39.4
##  4     2     1     1  0.574 0.162  0.0630 0.201     9.72      0     49.2
##  5     2     2     2  0.273 0.242  0.200  0.285    -0.571     0     14.5
##  6     2     5     3  0.501 0.120  0.103  0.277     1.53      0     29.8
##  7     2     3     4  0.181 0.156  0.240  0.424     6.55      0     22.8
##  8     2     4     5  0.340 0.0877 0.0783 0.494     5.76      0     26.6
##  9     2     1     8  0.531 0.214  0.105  0.151     2.43      0     17.2
## 10     2     2     9  0.228 0.609  0.0911 0.0724    5.21      0     24.1
## # ... with 40 more rows, and 18 more variables: leftshift1 <dbl>,
## #   leftshift2 <dbl>, rightshift1 <dbl>, rightshift2 <dbl>, 석식계 <lgl>,
## #   식수가능인원수 <int>, 강우여부 <dbl>, year_X2016 <dbl>, year_X2017 <dbl>,
## #   year_X2018 <dbl>, year_X2019 <dbl>, year_X2020 <dbl>, year_X2021 <dbl>,
## #   불쾌지수_X.35.68. <dbl>, 불쾌지수_X.68.75. <dbl>, 불쾌지수_X.75.80. <dbl>,
## #   불쾌지수_X.80.84.3. <dbl>, .pred <dbl>

stacking_pred_lunch

## # A tibble: 50 x 28
##    month  wday   day Topic1 Topic2 Topic3 Topic4 체감온도  폭염 미세먼지
##    <dbl> <dbl> <dbl>  <dbl>  <dbl>  <dbl>  <dbl>    <dbl> <dbl>    <dbl>
##  1     1     5    27  0.656 0.146  0.0565 0.142    10.9       0     32.1
##  2     1     3    28  0.234 0.528  0.151  0.0872    3.08      0     45.9
##  3     1     4    29  0.252 0.141  0.269  0.338    -1.76      0     39.4
##  4     2     1     1  0.574 0.162  0.0630 0.201     9.72      0     49.2
##  5     2     2     2  0.273 0.242  0.200  0.285    -0.571     0     14.5
##  6     2     5     3  0.501 0.120  0.103  0.277     1.53      0     29.8
##  7     2     3     4  0.181 0.156  0.240  0.424     6.55      0     22.8
##  8     2     4     5  0.340 0.0877 0.0783 0.494     5.76      0     26.6
##  9     2     1     8  0.531 0.214  0.105  0.151     2.43      0     17.2
## 10     2     2     9  0.228 0.609  0.0911 0.0724    5.21      0     24.1
## # ... with 40 more rows, and 18 more variables: leftshift1 <dbl>,
## #   leftshift2 <dbl>, rightshift1 <dbl>, rightshift2 <dbl>, 중식계 <lgl>,
## #   식수가능인원수 <int>, 강우여부 <dbl>, year_X2016 <dbl>, year_X2017 <dbl>,
## #   year_X2018 <dbl>, year_X2019 <dbl>, year_X2020 <dbl>, year_X2021 <dbl>,
## #   불쾌지수_X.35.68. <dbl>, 불쾌지수_X.68.75. <dbl>, 불쾌지수_X.75.80. <dbl>,
## #   불쾌지수_X.80.84.3. <dbl>, .pred <dbl>
…
